{
	"main": {
		"pageName"			: "index",
	},
	"meta": {
		"title"				: "",
		"description"		: "",
		"keywords"			: "",
		"share"				: {
			"title"			: "",
			"description"	: "",
			"image"			: ""
		}
	}
}